{
  "project_info": {
    "project_number": "642040115582",
    "firebase_url": "https://quizapplication-a7007.firebaseio.com",
    "project_id": "quizapplication-a7007",
    "storage_bucket": "quizapplication-a7007.appspot.com"
  },
  "client": [
    {
      "client_info": {
        "mobilesdk_app_id": "1:642040115582:android:8eef47b3d19cea6bad432f",
        "android_client_info": {
          "package_name": "in.ebrious.projectquiz"
        }
      },
      "oauth_client": [
        {
          "client_id": "642040115582-vov4gci642t0h104610u758rplu3pbb7.apps.googleusercontent.com",
          "client_type": 1,
          "android_info": {
            "package_name": "in.ebrious.projectquiz",
            "certificate_hash": "81bb6d2bf4fe6eed9fbc2e69cdce51a81e0b3f59"
          }
        },
        {
          "client_id": "642040115582-3fcvupgrkl956qai5ti7rmjrvkrkj454.apps.googleusercontent.com",
          "client_type": 3
        }
      ],
      "api_key": [
        {
          "current_key": "AIzaSyDJTKApk6SosA2jhrFSC3NiE2ufqM3tWXY"
        }
      ],
      "services": {
        "appinvite_service": {
          "other_platform_oauth_client": [
            {
              "client_id": "642040115582-3fcvupgrkl956qai5ti7rmjrvkrkj454.apps.googleusercontent.com",
              "client_type": 3
            },
            {
              "client_id": "642040115582-587env330q2i0mklo7eb0fapu631go7v.apps.googleusercontent.com",
              "client_type": 2,
              "ios_info": {
                "bundle_id": "Priya.AdminApplicationQuiz"
              }
            }
          ]
        }
      }
    }
  ],
  "configuration_version": "1"
}